{
    "/js/app.js": "/js/app.js",
    "/css/app.css": "/css/app.css",
    "/js/app.js.map": "/js/app.js.map",
    "/css/app.css.map": "/css/app.css.map",
    "/js/pages/alternatives.js": "/js/pages/alternatives.js",
    "/js/pages/alternatives.js.map": "/js/pages/alternatives.js.map",
    "/js/pages/criteria.js": "/js/pages/criteria.js",
    "/js/pages/criteria.js.map": "/js/pages/criteria.js.map",
    "/js/pages/dashboard.js": "/js/pages/dashboard.js",
    "/js/pages/dashboard.js.map": "/js/pages/dashboard.js.map",
    "/js/pages/rating.js": "/js/pages/rating.js",
    "/js/pages/rating.js.map": "/js/pages/rating.js.map",
    "/js/utils/handlers.js": "/js/utils/handlers.js",
    "/js/utils/handlers.js.map": "/js/utils/handlers.js.map"
}
